(kicad_symbol_lib (version 20211014) (generator kicad_symbol_editor)
  (symbol "CD40106B" (pin_names (offset 1.016)) (in_bom yes) (on_board yes)
    (property "Reference" "U" (id 0) (at 5.08 6.35 0)
      (effects (font (size 1.524 1.524)) (justify left))
    )
    (property "Value" "CD40106B" (id 1) (at 5.08 3.81 0)
      (effects (font (size 1.524 1.524)) (justify left))
    )
    (property "Footprint" "mika-keyboard:CD40106B" (id 2) (at 5.08 1.27 0)
      (effects (font (size 1.524 1.524)) (justify left) hide)
    )
    (property "Datasheet" "https://www.ti.com/lit/gpn/cd40106b" (id 3) (at 5.08 -3.81 0)
      (effects (font (size 1.524 1.524)) (justify left) hide)
    )
    (property "manf#" "CD40106B" (id 4) (at 5.08 -1.27 0)
      (effects (font (size 1.524 1.524)) (justify left) hide)
    )
    (property "desc" "6-ch 3-V to 18-V inverters with Schmitt-Trigger inputs" (id 5) (at 5.08 -6.35 0)
      (effects (font (size 1.524 1.524)) (justify left) hide)
    )
    (property "ki_locked" "" (id 6) (at 0 0 0)
      (effects (font (size 1.27 1.27)))
    )
    (symbol "CD40106B_1_1"
      (rectangle (start 5.08 2.54) (end 20.32 -17.78)
        (stroke (width 0) (type default) (color 0 0 0 0))
        (fill (type background))
      )
      (pin input line (at 0 0 0) (length 5.08)
        (name "A" (effects (font (size 1.27 1.27))))
        (number "1" (effects (font (size 1.27 1.27))))
      )
      (pin output line (at 25.4 -10.16 180) (length 5.08)
        (name "EX" (effects (font (size 1.27 1.27))))
        (number "10" (effects (font (size 1.27 1.27))))
      )
      (pin input line (at 25.4 -7.62 180) (length 5.08)
        (name "E" (effects (font (size 1.27 1.27))))
        (number "11" (effects (font (size 1.27 1.27))))
      )
      (pin output line (at 25.4 -5.08 180) (length 5.08)
        (name "FX" (effects (font (size 1.27 1.27))))
        (number "12" (effects (font (size 1.27 1.27))))
      )
      (pin input line (at 25.4 -2.54 180) (length 5.08)
        (name "F" (effects (font (size 1.27 1.27))))
        (number "13" (effects (font (size 1.27 1.27))))
      )
      (pin power_in line (at 25.4 0 180) (length 5.08)
        (name "VDD" (effects (font (size 1.27 1.27))))
        (number "14" (effects (font (size 1.27 1.27))))
      )
      (pin output line (at 0 -2.54 0) (length 5.08)
        (name "AX" (effects (font (size 1.27 1.27))))
        (number "2" (effects (font (size 1.27 1.27))))
      )
      (pin input line (at 0 -5.08 0) (length 5.08)
        (name "B" (effects (font (size 1.27 1.27))))
        (number "3" (effects (font (size 1.27 1.27))))
      )
      (pin output line (at 0 -7.62 0) (length 5.08)
        (name "BX" (effects (font (size 1.27 1.27))))
        (number "4" (effects (font (size 1.27 1.27))))
      )
      (pin input line (at 0 -10.16 0) (length 5.08)
        (name "C" (effects (font (size 1.27 1.27))))
        (number "5" (effects (font (size 1.27 1.27))))
      )
      (pin output line (at 0 -12.7 0) (length 5.08)
        (name "CX" (effects (font (size 1.27 1.27))))
        (number "6" (effects (font (size 1.27 1.27))))
      )
      (pin power_in line (at 0 -15.24 0) (length 5.08)
        (name "VSS" (effects (font (size 1.27 1.27))))
        (number "7" (effects (font (size 1.27 1.27))))
      )
      (pin output line (at 25.4 -15.24 180) (length 5.08)
        (name "DX" (effects (font (size 1.27 1.27))))
        (number "8" (effects (font (size 1.27 1.27))))
      )
      (pin input line (at 25.4 -12.7 180) (length 5.08)
        (name "D" (effects (font (size 1.27 1.27))))
        (number "9" (effects (font (size 1.27 1.27))))
      )
    )
  )
  (symbol "DFR0647" (pin_names (offset 1.016)) (in_bom yes) (on_board yes)
    (property "Reference" "DS" (id 0) (at 5.08 6.35 0)
      (effects (font (size 1.524 1.524)) (justify left))
    )
    (property "Value" "DFR0647" (id 1) (at 5.08 3.81 0)
      (effects (font (size 1.524 1.524)) (justify left))
    )
    (property "Footprint" "mika-keyboard:DFR0647" (id 2) (at 5.08 1.27 0)
      (effects (font (size 1.524 1.524)) (justify left) hide)
    )
    (property "Datasheet" "https://wiki.dfrobot.com/Monochrome%200.91%E2%80%9D128x32%20I2C%20OLED%20Display%20Chip%20Pad%20SKU:%20DFR0647" (id 3) (at 5.08 -3.81 0)
      (effects (font (size 1.524 1.524)) (justify left) hide)
    )
    (property "manf#" "DFR0647" (id 4) (at 5.08 -1.27 0)
      (effects (font (size 1.524 1.524)) (justify left) hide)
    )
    (property "desc" "MONOCHROME 0.91 128X32 I2C OLED" (id 5) (at 5.08 -6.35 0)
      (effects (font (size 1.524 1.524)) (justify left) hide)
    )
    (property "ki_locked" "" (id 6) (at 0 0 0)
      (effects (font (size 1.27 1.27)))
    )
    (symbol "DFR0647_1_1"
      (rectangle (start 5.08 2.54) (end 12.7 -10.16)
        (stroke (width 0) (type default) (color 0 0 0 0))
        (fill (type background))
      )
      (pin input line (at 0 -7.62 0) (length 5.08)
        (name "SDA" (effects (font (size 1.27 1.27))))
        (number "1" (effects (font (size 1.27 1.27))))
      )
      (pin input line (at 0 -5.08 0) (length 5.08)
        (name "SCL" (effects (font (size 1.27 1.27))))
        (number "2" (effects (font (size 1.27 1.27))))
      )
      (pin power_in line (at 0 -2.54 0) (length 5.08)
        (name "GND" (effects (font (size 1.27 1.27))))
        (number "3" (effects (font (size 1.27 1.27))))
      )
      (pin power_in line (at 0 0 0) (length 5.08)
        (name "VDD" (effects (font (size 1.27 1.27))))
        (number "4" (effects (font (size 1.27 1.27))))
      )
    )
  )
  (symbol "PEC11R-4215F-S0024" (pin_names (offset 1.016)) (in_bom yes) (on_board yes)
    (property "Reference" "U" (id 0) (at 3.81 6.35 0)
      (effects (font (size 1.524 1.524)) (justify right))
    )
    (property "Value" "PEC11R-4215F-S0024" (id 1) (at 3.81 3.81 0)
      (effects (font (size 1.524 1.524)) (justify right))
    )
    (property "Footprint" "mika-keyboard:XDCR_PEC11R-4215F-S0024" (id 2) (at 3.81 1.27 0)
      (effects (font (size 1.524 1.524)) (justify right) hide)
    )
    (property "Datasheet" "https://www.bourns.com/docs/product-datasheets/pec11r.pdf" (id 3) (at 3.81 -3.81 0)
      (effects (font (size 1.524 1.524)) (justify right) hide)
    )
    (property "manf#" "PEC11R-4215F-S0024" (id 4) (at 3.81 -1.27 0)
      (effects (font (size 1.524 1.524)) (justify right) hide)
    )
    (property "desc" "rotary encoder" (id 5) (at 3.81 -6.35 0)
      (effects (font (size 1.524 1.524)) (justify right) hide)
    )
    (property "ki_locked" "" (id 6) (at 0 0 0)
      (effects (font (size 1.27 1.27)))
    )
    (symbol "PEC11R-4215F-S0024_1_1"
      (rectangle (start 5.08 7.62) (end 25.4 -7.62)
        (stroke (width 0) (type default) (color 0 0 0 0))
        (fill (type background))
      )
      (pin input line (at 15.24 12.7 270) (length 5.08)
        (name "1" (effects (font (size 1.27 1.27))))
        (number "1" (effects (font (size 1.27 1.27))))
      )
      (pin bidirectional line (at 17.78 12.7 270) (length 5.08)
        (name "2" (effects (font (size 1.27 1.27))))
        (number "2" (effects (font (size 1.27 1.27))))
      )
      (pin power_in line (at 0 0 0) (length 5.08)
        (name "S1" (effects (font (size 1.27 1.27))))
        (number "3" (effects (font (size 1.27 1.27))))
      )
      (pin output line (at 12.7 -12.7 90) (length 5.08)
        (name "A" (effects (font (size 1.27 1.27))))
        (number "4" (effects (font (size 1.27 1.27))))
      )
      (pin power_in line (at 15.24 -12.7 90) (length 5.08)
        (name "C" (effects (font (size 1.27 1.27))))
        (number "5" (effects (font (size 1.27 1.27))))
      )
      (pin output line (at 17.78 -12.7 90) (length 5.08)
        (name "B" (effects (font (size 1.27 1.27))))
        (number "6" (effects (font (size 1.27 1.27))))
      )
      (pin power_in line (at 30.48 0 180) (length 5.08)
        (name "S2" (effects (font (size 1.27 1.27))))
        (number "7" (effects (font (size 1.27 1.27))))
      )
    )
  )
  (symbol "Raspberry_Pi_Pico" (pin_names (offset 1.016)) (in_bom yes) (on_board yes)
    (property "Reference" "U" (id 0) (at 5.08 6.35 0)
      (effects (font (size 1.524 1.524)) (justify left))
    )
    (property "Value" "Raspberry_Pi_Pico" (id 1) (at 5.08 3.81 0)
      (effects (font (size 1.524 1.524)) (justify left))
    )
    (property "Footprint" "" (id 2) (at 5.08 1.27 0)
      (effects (font (size 1.524 1.524)) (justify left) hide)
    )
    (property "Datasheet" "" (id 3) (at 5.08 -3.81 0)
      (effects (font (size 1.524 1.524)) (justify left) hide)
    )
    (property "ki_locked" "" (id 4) (at 0 0 0)
      (effects (font (size 1.27 1.27)))
    )
    (symbol "Raspberry_Pi_Pico_1_1"
      (rectangle (start 5.08 2.54) (end 40.64 -60.96)
        (stroke (width 0) (type default) (color 0 0 0 0))
        (fill (type background))
      )
      (pin bidirectional line (at 0 0 0) (length 5.08)
        (name "GB0" (effects (font (size 1.27 1.27))))
        (number "1" (effects (font (size 1.27 1.27))))
      )
      (pin bidirectional line (at 0 -22.86 0) (length 5.08)
        (name "GP7" (effects (font (size 1.27 1.27))))
        (number "10" (effects (font (size 1.27 1.27))))
      )
      (pin bidirectional line (at 0 -25.4 0) (length 5.08)
        (name "GP8" (effects (font (size 1.27 1.27))))
        (number "11" (effects (font (size 1.27 1.27))))
      )
      (pin bidirectional line (at 0 -27.94 0) (length 5.08)
        (name "GP9" (effects (font (size 1.27 1.27))))
        (number "12" (effects (font (size 1.27 1.27))))
      )
      (pin power_in line (at 0 -30.48 0) (length 5.08)
        (name "GND" (effects (font (size 1.27 1.27))))
        (number "13" (effects (font (size 1.27 1.27))))
      )
      (pin bidirectional line (at 0 -33.02 0) (length 5.08)
        (name "GP10" (effects (font (size 1.27 1.27))))
        (number "14" (effects (font (size 1.27 1.27))))
      )
      (pin bidirectional line (at 0 -35.56 0) (length 5.08)
        (name "GP11" (effects (font (size 1.27 1.27))))
        (number "15" (effects (font (size 1.27 1.27))))
      )
      (pin bidirectional line (at 0 -38.1 0) (length 5.08)
        (name "GP12" (effects (font (size 1.27 1.27))))
        (number "16" (effects (font (size 1.27 1.27))))
      )
      (pin bidirectional line (at 0 -40.64 0) (length 5.08)
        (name "GP13" (effects (font (size 1.27 1.27))))
        (number "17" (effects (font (size 1.27 1.27))))
      )
      (pin power_in line (at 0 -43.18 0) (length 5.08)
        (name "GND" (effects (font (size 1.27 1.27))))
        (number "18" (effects (font (size 1.27 1.27))))
      )
      (pin bidirectional line (at 0 -45.72 0) (length 5.08)
        (name "GP14" (effects (font (size 1.27 1.27))))
        (number "19" (effects (font (size 1.27 1.27))))
      )
      (pin bidirectional line (at 0 -2.54 0) (length 5.08)
        (name "GB1" (effects (font (size 1.27 1.27))))
        (number "2" (effects (font (size 1.27 1.27))))
      )
      (pin bidirectional line (at 0 -48.26 0) (length 5.08)
        (name "GP15" (effects (font (size 1.27 1.27))))
        (number "20" (effects (font (size 1.27 1.27))))
      )
      (pin bidirectional line (at 45.72 -48.26 180) (length 5.08)
        (name "GP16" (effects (font (size 1.27 1.27))))
        (number "21" (effects (font (size 1.27 1.27))))
      )
      (pin bidirectional line (at 45.72 -45.72 180) (length 5.08)
        (name "GP17" (effects (font (size 1.27 1.27))))
        (number "22" (effects (font (size 1.27 1.27))))
      )
      (pin power_in line (at 45.72 -43.18 180) (length 5.08)
        (name "GND" (effects (font (size 1.27 1.27))))
        (number "23" (effects (font (size 1.27 1.27))))
      )
      (pin bidirectional line (at 45.72 -40.64 180) (length 5.08)
        (name "GP18" (effects (font (size 1.27 1.27))))
        (number "24" (effects (font (size 1.27 1.27))))
      )
      (pin bidirectional line (at 45.72 -38.1 180) (length 5.08)
        (name "GP19" (effects (font (size 1.27 1.27))))
        (number "25" (effects (font (size 1.27 1.27))))
      )
      (pin bidirectional line (at 45.72 -35.56 180) (length 5.08)
        (name "GP20" (effects (font (size 1.27 1.27))))
        (number "26" (effects (font (size 1.27 1.27))))
      )
      (pin bidirectional line (at 45.72 -33.02 180) (length 5.08)
        (name "GP21" (effects (font (size 1.27 1.27))))
        (number "27" (effects (font (size 1.27 1.27))))
      )
      (pin power_in line (at 45.72 -30.48 180) (length 5.08)
        (name "GND" (effects (font (size 1.27 1.27))))
        (number "28" (effects (font (size 1.27 1.27))))
      )
      (pin bidirectional line (at 45.72 -27.94 180) (length 5.08)
        (name "GP22" (effects (font (size 1.27 1.27))))
        (number "29" (effects (font (size 1.27 1.27))))
      )
      (pin power_in line (at 0 -5.08 0) (length 5.08)
        (name "GND" (effects (font (size 1.27 1.27))))
        (number "3" (effects (font (size 1.27 1.27))))
      )
      (pin bidirectional line (at 45.72 -25.4 180) (length 5.08)
        (name "RUN" (effects (font (size 1.27 1.27))))
        (number "30" (effects (font (size 1.27 1.27))))
      )
      (pin bidirectional line (at 45.72 -22.86 180) (length 5.08)
        (name "GP26" (effects (font (size 1.27 1.27))))
        (number "31" (effects (font (size 1.27 1.27))))
      )
      (pin bidirectional line (at 45.72 -20.32 180) (length 5.08)
        (name "GP27" (effects (font (size 1.27 1.27))))
        (number "32" (effects (font (size 1.27 1.27))))
      )
      (pin power_in line (at 45.72 -17.78 180) (length 5.08)
        (name "GND" (effects (font (size 1.27 1.27))))
        (number "33" (effects (font (size 1.27 1.27))))
      )
      (pin bidirectional line (at 45.72 -15.24 180) (length 5.08)
        (name "GP28" (effects (font (size 1.27 1.27))))
        (number "34" (effects (font (size 1.27 1.27))))
      )
      (pin bidirectional line (at 45.72 -12.7 180) (length 5.08)
        (name "ADC_VREF" (effects (font (size 1.27 1.27))))
        (number "35" (effects (font (size 1.27 1.27))))
      )
      (pin power_out line (at 45.72 -10.16 180) (length 5.08)
        (name "3V3(OUT)" (effects (font (size 1.27 1.27))))
        (number "36" (effects (font (size 1.27 1.27))))
      )
      (pin bidirectional line (at 45.72 -7.62 180) (length 5.08)
        (name "3V3_EN" (effects (font (size 1.27 1.27))))
        (number "37" (effects (font (size 1.27 1.27))))
      )
      (pin power_in line (at 45.72 -5.08 180) (length 5.08)
        (name "GND" (effects (font (size 1.27 1.27))))
        (number "38" (effects (font (size 1.27 1.27))))
      )
      (pin power_in line (at 45.72 -2.54 180) (length 5.08)
        (name "VSYS" (effects (font (size 1.27 1.27))))
        (number "39" (effects (font (size 1.27 1.27))))
      )
      (pin bidirectional line (at 0 -7.62 0) (length 5.08)
        (name "GP2" (effects (font (size 1.27 1.27))))
        (number "4" (effects (font (size 1.27 1.27))))
      )
      (pin power_in line (at 45.72 0 180) (length 5.08)
        (name "VBUS" (effects (font (size 1.27 1.27))))
        (number "40" (effects (font (size 1.27 1.27))))
      )
      (pin bidirectional line (at 0 -10.16 0) (length 5.08)
        (name "GP3" (effects (font (size 1.27 1.27))))
        (number "5" (effects (font (size 1.27 1.27))))
      )
      (pin bidirectional line (at 0 -12.7 0) (length 5.08)
        (name "GP4" (effects (font (size 1.27 1.27))))
        (number "6" (effects (font (size 1.27 1.27))))
      )
      (pin bidirectional line (at 0 -15.24 0) (length 5.08)
        (name "GP5" (effects (font (size 1.27 1.27))))
        (number "7" (effects (font (size 1.27 1.27))))
      )
      (pin power_in line (at 0 -17.78 0) (length 5.08)
        (name "GND" (effects (font (size 1.27 1.27))))
        (number "8" (effects (font (size 1.27 1.27))))
      )
      (pin bidirectional line (at 0 -20.32 0) (length 5.08)
        (name "GP6" (effects (font (size 1.27 1.27))))
        (number "9" (effects (font (size 1.27 1.27))))
      )
      (pin input line (at 20.32 -66.04 90) (length 5.08)
        (name "SWCLK" (effects (font (size 1.27 1.27))))
        (number "D1" (effects (font (size 1.27 1.27))))
      )
      (pin power_in line (at 22.86 -66.04 90) (length 5.08)
        (name "GND" (effects (font (size 1.27 1.27))))
        (number "D2" (effects (font (size 1.27 1.27))))
      )
      (pin bidirectional line (at 25.4 -66.04 90) (length 5.08)
        (name "SWDIO" (effects (font (size 1.27 1.27))))
        (number "D3" (effects (font (size 1.27 1.27))))
      )
    )
  )
  (symbol "Rotary_Encoder_Switch" (pin_names (offset 0.254) hide) (in_bom yes) (on_board yes)
    (property "Reference" "SW" (id 0) (at 0 6.604 0)
      (effects (font (size 1.27 1.27)))
    )
    (property "Value" "Rotary_Encoder_Switch" (id 1) (at 0 -6.604 0)
      (effects (font (size 1.27 1.27)))
    )
    (property "Footprint" "" (id 2) (at -3.81 4.064 0)
      (effects (font (size 1.27 1.27)) hide)
    )
    (property "Datasheet" "~" (id 3) (at 0 6.604 0)
      (effects (font (size 1.27 1.27)) hide)
    )
    (property "ki_keywords" "rotary switch encoder switch push button" (id 4) (at 0 0 0)
      (effects (font (size 1.27 1.27)) hide)
    )
    (property "ki_description" "Rotary encoder, dual channel, incremental quadrate outputs, with switch" (id 5) (at 0 0 0)
      (effects (font (size 1.27 1.27)) hide)
    )
    (property "ki_fp_filters" "RotaryEncoder*Switch*" (id 6) (at 0 0 0)
      (effects (font (size 1.27 1.27)) hide)
    )
    (symbol "Rotary_Encoder_Switch_0_1"
      (rectangle (start -5.08 5.08) (end 5.08 -5.08)
        (stroke (width 0.254) (type default) (color 0 0 0 0))
        (fill (type background))
      )
      (circle (center -3.81 0) (radius 0.254)
        (stroke (width 0) (type default) (color 0 0 0 0))
        (fill (type outline))
      )
      (arc (start -0.381 -2.794) (mid 2.3622 -0.0508) (end -0.381 2.667)
        (stroke (width 0.254) (type default) (color 0 0 0 0))
        (fill (type none))
      )
      (circle (center -0.381 0) (radius 1.905)
        (stroke (width 0.254) (type default) (color 0 0 0 0))
        (fill (type none))
      )
      (polyline
        (pts
          (xy -0.635 -1.778)
          (xy -0.635 1.778)
        )
        (stroke (width 0.254) (type default) (color 0 0 0 0))
        (fill (type none))
      )
      (polyline
        (pts
          (xy -0.381 -1.778)
          (xy -0.381 1.778)
        )
        (stroke (width 0.254) (type default) (color 0 0 0 0))
        (fill (type none))
      )
      (polyline
        (pts
          (xy -0.127 1.778)
          (xy -0.127 -1.778)
        )
        (stroke (width 0.254) (type default) (color 0 0 0 0))
        (fill (type none))
      )
      (polyline
        (pts
          (xy 3.81 0)
          (xy 3.429 0)
        )
        (stroke (width 0.254) (type default) (color 0 0 0 0))
        (fill (type none))
      )
      (polyline
        (pts
          (xy 3.81 1.016)
          (xy 3.81 -1.016)
        )
        (stroke (width 0.254) (type default) (color 0 0 0 0))
        (fill (type none))
      )
      (polyline
        (pts
          (xy -5.08 -2.54)
          (xy -3.81 -2.54)
          (xy -3.81 -2.032)
        )
        (stroke (width 0) (type default) (color 0 0 0 0))
        (fill (type none))
      )
      (polyline
        (pts
          (xy -5.08 2.54)
          (xy -3.81 2.54)
          (xy -3.81 2.032)
        )
        (stroke (width 0) (type default) (color 0 0 0 0))
        (fill (type none))
      )
      (polyline
        (pts
          (xy 0.254 -3.048)
          (xy -0.508 -2.794)
          (xy 0.127 -2.413)
        )
        (stroke (width 0.254) (type default) (color 0 0 0 0))
        (fill (type none))
      )
      (polyline
        (pts
          (xy 0.254 2.921)
          (xy -0.508 2.667)
          (xy 0.127 2.286)
        )
        (stroke (width 0.254) (type default) (color 0 0 0 0))
        (fill (type none))
      )
      (polyline
        (pts
          (xy 5.08 -2.54)
          (xy 4.318 -2.54)
          (xy 4.318 -1.016)
        )
        (stroke (width 0.254) (type default) (color 0 0 0 0))
        (fill (type none))
      )
      (polyline
        (pts
          (xy 5.08 2.54)
          (xy 4.318 2.54)
          (xy 4.318 1.016)
        )
        (stroke (width 0.254) (type default) (color 0 0 0 0))
        (fill (type none))
      )
      (polyline
        (pts
          (xy -5.08 0)
          (xy -3.81 0)
          (xy -3.81 -1.016)
          (xy -3.302 -2.032)
        )
        (stroke (width 0) (type default) (color 0 0 0 0))
        (fill (type none))
      )
      (polyline
        (pts
          (xy -4.318 0)
          (xy -3.81 0)
          (xy -3.81 1.016)
          (xy -3.302 2.032)
        )
        (stroke (width 0) (type default) (color 0 0 0 0))
        (fill (type none))
      )
      (circle (center 4.318 -1.016) (radius 0.127)
        (stroke (width 0.254) (type default) (color 0 0 0 0))
        (fill (type none))
      )
      (circle (center 4.318 1.016) (radius 0.127)
        (stroke (width 0.254) (type default) (color 0 0 0 0))
        (fill (type none))
      )
    )
    (symbol "Rotary_Encoder_Switch_1_1"
      (pin passive line (at -7.62 2.54 0) (length 2.54)
        (name "A" (effects (font (size 1.27 1.27))))
        (number "A" (effects (font (size 1.27 1.27))))
      )
      (pin passive line (at -7.62 -2.54 0) (length 2.54)
        (name "B" (effects (font (size 1.27 1.27))))
        (number "B" (effects (font (size 1.27 1.27))))
      )
      (pin passive line (at -7.62 0 0) (length 2.54)
        (name "C" (effects (font (size 1.27 1.27))))
        (number "C" (effects (font (size 1.27 1.27))))
      )
      (pin passive line (at 7.62 2.54 180) (length 2.54)
        (name "S1" (effects (font (size 1.27 1.27))))
        (number "S1" (effects (font (size 1.27 1.27))))
      )
      (pin passive line (at 7.62 -2.54 180) (length 2.54)
        (name "S2" (effects (font (size 1.27 1.27))))
        (number "S2" (effects (font (size 1.27 1.27))))
      )
    )
  )
)
